<?xml version="1.0" encoding="UTF-8" standalone="no"?>
<!-- Created with Inkscape (http://www.inkscape.org/) -->

<svg
   width="600"
   height="300"
   viewBox="0 0 158.75 79.375004"
   version="1.1"
   id="svg2514"
   inkscape:version="1.2.2 (b0a8486541, 2022-12-01)"
   sodipodi:docname="bin.svg"
   xmlns:inkscape="http://www.inkscape.org/namespaces/inkscape"
   xmlns:sodipodi="http://sodipodi.sourceforge.net/DTD/sodipodi-0.dtd"
   xmlns="http://www.w3.org/2000/svg"
   xmlns:svg="http://www.w3.org/2000/svg">
  <sodipodi:namedview
     id="namedview2516"
     pagecolor="#ffffff"
     bordercolor="#999999"
     borderopacity="1"
     inkscape:showpageshadow="0"
     inkscape:pageopacity="0"
     inkscape:pagecheckerboard="0"
     inkscape:deskcolor="#d1d1d1"
     inkscape:document-units="mm"
     showgrid="false"
     inkscape:zoom="0.84096521"
     inkscape:cx="339.49086"
     inkscape:cy="371.59682"
     inkscape:window-width="1920"
     inkscape:window-height="1019"
     inkscape:window-x="0"
     inkscape:window-y="0"
     inkscape:window-maximized="1"
     inkscape:current-layer="layer1" />
  <defs
     id="defs2511" />
  <g
     inkscape:label="Layer 1"
     inkscape:groupmode="layer"
     id="layer1">
    <circle
       cx="42.018681"
       cy="39.686577"
       id="circle23-93"
       style="color:#000000;fill:#50162d;fill-opacity:0.988462;stroke-width:2.21506;enable-background:accumulate"
       r="26.458334" />
    <g
       transform="matrix(0.75863213,0,0,0.7459164,-14.533156,-233.09554)"
       id="g3202-6">
      <path
         style="fill:#ffffff;stroke-width:0.389397"
         d="m 65.361709,380.38186 -8.56674,-4.73237 -0.103922,-9.77914 c -0.07994,-7.5224 0.0099,-9.87291 0.389397,-10.18544 0.70845,-0.58347 17.100771,-9.43491 17.472879,-9.43491 0.351735,0 16.633117,8.84293 17.384747,9.44221 0.36594,0.29176 0.48675,2.79031 0.48675,10.06636 0,9.60823 -0.006,9.6824 -0.87614,10.24829 -1.90562,1.2398 -16.865579,9.17897 -17.230833,9.14432 -0.214169,-0.0203 -4.244431,-2.16651 -8.956138,-4.76932 z m 12.456457,-11.23277 -1.057428,-3.77463 1.42593,-1.74016 c 1.901988,-2.32112 2.202435,-4.92339 0.897841,-6.22798 -0.534716,-0.53472 -1.681643,-1.18476 -2.548729,-1.44455 -1.381068,-0.41378 -3.315574,-0.37816 -4.597871,0.28729 -0.840428,0.43614 -1.769168,1.34812 -2.180928,2.14156 -0.851137,1.6401 -0.547773,2.80898 1.264797,4.87338 0.634912,0.72312 1.154384,1.5321 1.154384,1.79774 0,0.26563 -0.525687,2.63573 -1.168192,5.26689 -0.642506,2.63116 -1.168192,4.94854 -1.168192,5.14974 0,0.20405 3.299133,0.36582 5.495759,0.36582 h 3.938169 c -0.438625,-2.36465 -0.999918,-4.73033 -1.45554,-6.6951 z"
         id="path3177-06"
         inkscape:connector-curvature="0"
         sodipodi:nodetypes="scscscsccsccssccccsssscc" />
      <path
         style="fill:none;stroke:#50152c;stroke-width:0.362143;stroke-opacity:0.992157"
         d="m 65.858537,379.47068 -7.967155,-4.40114 -0.09665,-9.09471 c -0.07435,-6.9959 0.0092,-9.1819 0.362143,-9.47255 0.658867,-0.54264 15.90389,-8.77456 16.249954,-8.77456 0.327117,0 15.468965,8.224 16.167989,8.78135 0.340328,0.27134 0.452682,2.59501 0.452682,9.36181 0,8.93575 -0.0056,9.00473 -0.814819,9.53101 -1.772245,1.15303 -15.685157,8.53653 -16.024847,8.50431 -0.19918,-0.0189 -3.947364,-2.01487 -8.329297,-4.43552 z m 11.584629,-10.44659 -0.983418,-3.51043 1.32613,-1.61838 c 1.768867,-2.15866 2.048286,-4.57879 0.835001,-5.79207 -0.497292,-0.4973 -1.563946,-1.10184 -2.370344,-1.34346 -1.284407,-0.38482 -3.083517,-0.35168 -4.276067,0.26719 -0.781605,0.40562 -1.645344,1.25377 -2.028284,1.99167 -0.791566,1.52531 -0.509434,2.61238 1.176273,4.5323 0.590475,0.67251 1.07359,1.42486 1.07359,1.67191 0,0.24704 -0.488895,2.45125 -1.086431,4.89826 -0.597537,2.447 -1.08643,4.60219 -1.08643,4.78931 0,0.18977 3.068226,0.34021 5.111111,0.34021 h 3.662537 c -0.407926,-2.19914 -0.929934,-4.39925 -1.353668,-6.22651 z"
         id="path3177-0-2"
         inkscape:connector-curvature="0"
         sodipodi:nodetypes="scscscsccsccssccccsssscc" />
    </g>
    <g
       transform="matrix(1.037602,0,0,1.0202103,83.837493,-364.34543)"
       id="g3202-6-0">
      <path
         style="fill:#501027;fill-opacity:0.992157;stroke-width:0.389397"
         d="m 22.409919,411.10697 -8.56674,-4.73237 -0.103922,-9.77914 c -0.07994,-7.5224 0.0099,-9.87291 0.389397,-10.18544 0.70845,-0.58347 17.100771,-9.43491 17.472879,-9.43491 0.351735,0 16.633117,8.84293 17.384747,9.44221 0.36594,0.29176 0.48675,2.79031 0.48675,10.06636 0,9.60823 -0.006,9.6824 -0.87614,10.24829 -1.90562,1.2398 -16.865579,9.17897 -17.230833,9.14432 -0.214169,-0.0203 -4.244431,-2.16651 -8.956138,-4.76932 z m 12.456457,-11.23277 -1.057428,-3.77463 1.42593,-1.74016 c 1.901988,-2.32112 2.202435,-4.92339 0.897841,-6.22798 -0.534716,-0.53472 -1.681643,-1.18476 -2.548729,-1.44455 -1.381068,-0.41378 -3.315574,-0.37816 -4.597871,0.28729 -0.840428,0.43614 -1.769168,1.34812 -2.180928,2.14156 -0.851137,1.6401 -0.547773,2.80898 1.264797,4.87338 0.634912,0.72312 1.154384,1.5321 1.154384,1.79774 0,0.26563 -0.525687,2.63573 -1.168192,5.26689 -0.642506,2.63116 -1.168192,4.94854 -1.168192,5.14974 0,0.20405 3.299133,0.36582 5.495759,0.36582 h 3.938169 c -0.438625,-2.36465 -0.999918,-4.73033 -1.45554,-6.6951 z"
         id="path3177-06-6"
         inkscape:connector-curvature="0"
         sodipodi:nodetypes="scscscsccsccssccccsssscc"
         inkscape:export-filename="/home/fekete/Nextcloud-Antilopa/Disroot/Artwork/Icons/new_pngs/bin.png"
         inkscape:export-xdpi="480"
         inkscape:export-ydpi="480" />
      <path
         style="fill:none;stroke:#ffffff;stroke-width:0.362143;stroke-opacity:0.992157"
         d="m 22.906747,410.19579 -7.967155,-4.40114 -0.09665,-9.09471 c -0.07435,-6.9959 0.0092,-9.1819 0.362143,-9.47255 0.658867,-0.54264 15.90389,-8.77456 16.249954,-8.77456 0.327117,0 15.468965,8.224 16.167989,8.78135 0.340328,0.27134 0.452682,2.59501 0.452682,9.36181 0,8.93575 -0.0056,9.00473 -0.814819,9.53101 -1.772245,1.15303 -15.685157,8.53653 -16.024847,8.50431 -0.19918,-0.0189 -3.947364,-2.01487 -8.329297,-4.43552 z m 11.584629,-10.44659 -0.983418,-3.51043 1.32613,-1.61838 c 1.768867,-2.15866 2.048286,-4.57879 0.835001,-5.79207 -0.497292,-0.4973 -1.563946,-1.10184 -2.370344,-1.34346 -1.284407,-0.38482 -3.083517,-0.35168 -4.276067,0.26719 -0.781605,0.40562 -1.645344,1.25377 -2.028284,1.99167 -0.791566,1.52531 -0.509434,2.61238 1.176273,4.5323 0.590475,0.67251 1.07359,1.42486 1.07359,1.67191 0,0.24704 -0.488895,2.45125 -1.086431,4.89826 -0.597537,2.447 -1.08643,4.60219 -1.08643,4.78931 0,0.18977 3.068226,0.34021 5.111111,0.34021 h 3.662537 c -0.407926,-2.19914 -0.929934,-4.39925 -1.353668,-6.22651 z"
         id="path3177-0-2-3"
         inkscape:connector-curvature="0"
         sodipodi:nodetypes="scscscsccsccssccccsssscc"
         inkscape:export-filename="/home/fekete/Nextcloud-Antilopa/Disroot/Artwork/Icons/new_pngs/bin.png"
         inkscape:export-xdpi="480"
         inkscape:export-ydpi="480" />
    </g>
  </g>
</svg>
