<?xml version="1.0" encoding="UTF-8" standalone="no"?>
<!-- Created with Inkscape (http://www.inkscape.org/) -->

<svg
   width="600"
   height="300"
   viewBox="0 0 158.75 79.375004"
   version="1.1"
   id="svg2514"
   inkscape:version="1.2.2 (b0a8486541, 2022-12-01)"
   sodipodi:docname="cryptpad.svg"
   xmlns:inkscape="http://www.inkscape.org/namespaces/inkscape"
   xmlns:sodipodi="http://sodipodi.sourceforge.net/DTD/sodipodi-0.dtd"
   xmlns="http://www.w3.org/2000/svg"
   xmlns:svg="http://www.w3.org/2000/svg">
  <sodipodi:namedview
     id="namedview2516"
     pagecolor="#ffffff"
     bordercolor="#999999"
     borderopacity="1"
     inkscape:showpageshadow="0"
     inkscape:pageopacity="0"
     inkscape:pagecheckerboard="0"
     inkscape:deskcolor="#d1d1d1"
     inkscape:document-units="mm"
     showgrid="false"
     inkscape:zoom="1.1893044"
     inkscape:cx="304.80002"
     inkscape:cy="318.25326"
     inkscape:window-width="1920"
     inkscape:window-height="1019"
     inkscape:window-x="0"
     inkscape:window-y="0"
     inkscape:window-maximized="1"
     inkscape:current-layer="layer1" />
  <defs
     id="defs2511" />
  <g
     inkscape:label="Layer 1"
     inkscape:groupmode="layer"
     id="layer1">
    <circle
       r="26.458334"
       cx="46.164894"
       cy="41.071404"
       id="circle23-675-9-9"
       style="color:#000000;fill:#50162d;fill-opacity:0.988462;stroke-width:2.21506;enable-background:accumulate" />
    <g
       transform="matrix(0.46190679,0,0,0.46190679,-266.2762,-57.336269)"
       style="fill:#50152c;fill-opacity:0.992157"
       id="g982-4">
      <g
         style="fill:#50152c;fill-opacity:0.992157"
         id="g976-7">
        <path
           d="m 644.02,176.9 h 44.386 l 22.414,20.826 v 24.899 c 0,26.166 -21.414,32.228 -33.117,38.409 -12.815,-5.8945 -32.794,-12.329 -33.117,-38.409 z"
           style="fill:#50152c;fill-opacity:0.992157"
           id="path974-8" />
      </g>
      <g
         style="fill:#50152c;fill-opacity:0.992157"
         id="g980-4">
        <path
           d="m 644.02,176.9 h 44.386 l 22.414,20.826 v 24.899 c 0,26.166 -21.414,32.228 -33.117,38.409 -12.815,-5.8945 -32.794,-12.329 -33.117,-38.409 z"
           style="fill:#50152c;fill-opacity:0.992157"
           id="path978-5" />
      </g>
    </g>
    <g
       id="g5833"
       transform="translate(0.75163561,-0.52916667)">
      <path
         id="path988-0"
         style="color:#000000;font-style:normal;font-variant:normal;font-weight:normal;font-stretch:normal;font-size:medium;line-height:normal;font-family:sans-serif;font-variant-ligatures:normal;font-variant-position:normal;font-variant-caps:normal;font-variant-numeric:normal;font-variant-alternates:normal;font-variant-east-asian:normal;font-feature-settings:normal;font-variation-settings:normal;text-indent:0;text-align:start;text-decoration:none;text-decoration-line:none;text-decoration-style:solid;text-decoration-color:#000000;letter-spacing:normal;word-spacing:normal;text-transform:none;writing-mode:lr-tb;direction:ltr;text-orientation:mixed;dominant-baseline:auto;baseline-shift:baseline;text-anchor:start;white-space:normal;shape-padding:0;shape-margin:0;inline-size:0;clip-rule:nonzero;display:inline;overflow:visible;visibility:visible;isolation:auto;mix-blend-mode:normal;color-interpolation:sRGB;color-interpolation-filters:linearRGB;solid-color:#000000;solid-opacity:1;vector-effect:none;fill:#ffffff;fill-opacity:0.992157;fill-rule:nonzero;stroke:none;stroke-width:0.437571;stroke-linecap:butt;stroke-linejoin:miter;stroke-miterlimit:4;stroke-dasharray:none;stroke-dashoffset:0;stroke-opacity:1;color-rendering:auto;image-rendering:auto;shape-rendering:auto;text-rendering:auto;enable-background:accumulate;stop-color:#000000"
         d="m 30.182315,24.730172 c 0.09397,7.247792 0.16964,14.496276 0.27618,21.743624 0.109094,3.386117 1.101671,6.799374 3.159966,9.523031 2.031503,2.752102 4.988323,4.63844 8.033371,6.096454 1.545199,0.741876 3.13059,1.395729 4.683629,2.121267 2.650146,-1.420954 5.482671,-2.49926 8.004116,-4.157319 2.474383,-1.567649 4.655999,-3.682225 6.001649,-6.307189 1.373451,-2.599192 1.871236,-5.577906 1.801706,-8.495724 0,-3.616273 0,-7.232557 0,-10.848822 -3.544022,-3.292856 -7.08777,-6.585997 -10.632155,-9.878446 -7.110077,0 -14.22016,0 -21.330242,0 4.84e-4,0.06771 0.0014,0.135407 0.0014,0.203137 z m 18.54079,2.514156 c 0,3.280636 0,6.561275 0,9.841919 3.567816,0 7.135621,0 10.703439,0 -0.0105,3.192659 0.02152,6.385919 -0.01642,9.578194 -0.07508,2.409146 -0.706443,4.910036 -2.07464,6.919739 -1.166647,1.748082 -2.862299,3.179679 -4.630467,4.29035 -2.044088,1.292751 -4.27455,2.243179 -6.431894,3.323392 -3.163903,-1.418268 -6.466698,-2.77282 -9.026005,-5.186287 -1.458219,-1.347286 -2.626808,-3.09464 -3.265922,-4.987945 -0.642708,-1.839593 -0.839723,-3.846389 -0.828439,-5.788036 -0.07428,-5.997111 -0.148559,-11.994216 -0.222839,-17.991326 5.264403,0 10.528807,0 15.793211,0 z m 9.391116,7.126413 c -2.224603,0 -4.449213,0 -6.67383,0 0,-2.066917 0,-4.133839 0,-6.200747 2.224617,2.066908 4.449227,4.13383 6.67383,6.200747 z" />
      <path
         id="path992-3"
         style="color:#000000;font-style:normal;font-variant:normal;font-weight:normal;font-stretch:normal;font-size:medium;line-height:normal;font-family:sans-serif;font-variant-ligatures:normal;font-variant-position:normal;font-variant-caps:normal;font-variant-numeric:normal;font-variant-alternates:normal;font-variant-east-asian:normal;font-feature-settings:normal;font-variation-settings:normal;text-indent:0;text-align:start;text-decoration:none;text-decoration-line:none;text-decoration-style:solid;text-decoration-color:#000000;letter-spacing:normal;word-spacing:normal;text-transform:none;writing-mode:lr-tb;direction:ltr;text-orientation:mixed;dominant-baseline:auto;baseline-shift:baseline;text-anchor:start;white-space:normal;shape-padding:0;shape-margin:0;inline-size:0;clip-rule:nonzero;display:inline;overflow:visible;visibility:visible;isolation:auto;mix-blend-mode:normal;color-interpolation:sRGB;color-interpolation-filters:linearRGB;solid-color:#000000;solid-opacity:1;vector-effect:none;fill:#ffffff;fill-opacity:0.992157;fill-rule:nonzero;stroke:none;stroke-width:0.566589;stroke-linecap:butt;stroke-linejoin:miter;stroke-miterlimit:4;stroke-dasharray:none;stroke-dashoffset:0;stroke-opacity:1;color-rendering:auto;image-rendering:auto;shape-rendering:auto;text-rendering:auto;enable-background:accumulate;stop-color:#000000"
         d="m 46.164894,38.391492 c -2.540439,0 -4.599645,2.059199 -4.599645,4.599646 0,1.827253 1.067939,3.401054 2.611473,4.143268 l -1.606514,8.483754 h 7.191731 l -1.606992,-8.484697 c 1.542501,-0.742595 2.609585,-2.315825 2.609585,-4.142325 0,-2.540447 -2.059205,-4.599646 -4.599638,-4.599646 z" />
    </g>
    <g
       id="g3173"
       transform="matrix(0.68257055,0,0,0.68257055,-11.722058,81.745785)">
      <g
         transform="matrix(0.64106443,0,0,0.64106443,-243.53071,-196.34067)"
         style="fill:#50142b;fill-opacity:1"
         id="g982-4-2">
        <g
           style="fill:#50142b;fill-opacity:1"
           id="g976-7-9">
          <path
             d="m 644.02,176.9 h 44.386 l 22.414,20.826 v 24.899 c 0,26.166 -21.414,32.228 -33.117,38.409 -12.815,-5.8945 -32.794,-12.329 -33.117,-38.409 z"
             style="fill:#50142b;fill-opacity:1"
             id="path974-8-1" />
        </g>
        <g
           style="fill:#50142b;fill-opacity:1"
           id="g980-4-2">
          <path
             d="m 644.02,176.9 h 44.386 l 22.414,20.826 v 24.899 c 0,26.166 -21.414,32.228 -33.117,38.409 -12.815,-5.8945 -32.794,-12.329 -33.117,-38.409 z"
             style="fill:#50142b;fill-opacity:1"
             id="path978-5-7" />
        </g>
      </g>
      <path
         id="path988-0-0"
         style="color:#000000;font-style:normal;font-variant:normal;font-weight:normal;font-stretch:normal;font-size:medium;line-height:normal;font-family:sans-serif;font-variant-ligatures:normal;font-variant-position:normal;font-variant-caps:normal;font-variant-numeric:normal;font-variant-alternates:normal;font-variant-east-asian:normal;font-feature-settings:normal;font-variation-settings:normal;text-indent:0;text-align:start;text-decoration:none;text-decoration-line:none;text-decoration-style:solid;text-decoration-color:#000000;letter-spacing:normal;word-spacing:normal;text-transform:none;writing-mode:lr-tb;direction:ltr;text-orientation:mixed;dominant-baseline:auto;baseline-shift:baseline;text-anchor:start;white-space:normal;shape-padding:0;shape-margin:0;inline-size:0;clip-rule:nonzero;display:inline;overflow:visible;visibility:visible;isolation:auto;mix-blend-mode:normal;color-interpolation:sRGB;color-interpolation-filters:linearRGB;solid-color:#000000;solid-opacity:1;vector-effect:none;fill:#50142b;fill-opacity:1;fill-rule:nonzero;stroke:none;stroke-width:0.641064;stroke-linecap:butt;stroke-linejoin:miter;stroke-miterlimit:4;stroke-dasharray:none;stroke-dashoffset:0;stroke-opacity:1;color-rendering:auto;image-rendering:auto;shape-rendering:auto;text-rendering:auto;enable-background:accumulate;stop-color:#000000"
         d="m 167.91396,-84.630986 c 0.13758,10.618375 0.24887,21.237758 0.40484,31.855494 0.15948,4.960823 1.61402,9.96142 4.62956,13.951712 2.97619,4.031967 7.30807,6.795549 11.7693,8.931609 2.26377,1.086892 4.58643,2.044813 6.86169,3.107765 3.88261,-2.081775 8.03241,-3.661538 11.72645,-6.090687 3.62507,-2.296683 6.82131,-5.394643 8.79267,-9.24034 2.0122,-3.807947 2.74152,-8.171911 2.63961,-12.44666 0,-5.298024 0,-10.596057 0,-15.894072 -5.19212,-4.824194 -10.3839,-9.648808 -15.57664,-14.472414 -10.41659,0 -20.83326,0 -31.24985,0 7e-4,0.0992 0.002,0.198389 0.002,0.297584 z m 27.16314,3.683358 c 0,4.806299 0,9.612591 0,14.4189 5.2271,0 10.45409,0 15.6811,0 -0.0176,4.677408 0.0351,9.355693 -0.0262,14.03254 -0.1104,3.529519 -1.03497,7.193441 -3.03947,10.137754 -1.70917,2.561029 -4.19334,4.658393 -6.7838,6.285581 -2.99485,1.893945 -6.26257,3.286369 -9.42323,4.868937 -4.63525,-2.077832 -9.47406,-4.062314 -13.22357,-7.598167 -2.13636,-1.973844 -3.84835,-4.533805 -4.78474,-7.307593 -0.94156,-2.695092 -1.23021,-5.635146 -1.21365,-8.479757 -0.10869,-8.786068 -0.21732,-17.572128 -0.32685,-26.358195 7.71266,0 15.42522,0 23.13787,0 z m 13.75845,10.440551 c -3.25913,0 -6.51829,0 -9.77751,0 0,-3.028137 0,-6.056275 0,-9.084405 3.25922,3.02813 6.51838,6.056268 9.77751,9.084405 z" />
      <path
         id="path992-3-9"
         style="color:#000000;font-style:normal;font-variant:normal;font-weight:normal;font-stretch:normal;font-size:medium;line-height:normal;font-family:sans-serif;font-variant-ligatures:normal;font-variant-position:normal;font-variant-caps:normal;font-variant-numeric:normal;font-variant-alternates:normal;font-variant-east-asian:normal;font-feature-settings:normal;font-variation-settings:normal;text-indent:0;text-align:start;text-decoration:none;text-decoration-line:none;text-decoration-style:solid;text-decoration-color:#000000;letter-spacing:normal;word-spacing:normal;text-transform:none;writing-mode:lr-tb;direction:ltr;text-orientation:mixed;dominant-baseline:auto;baseline-shift:baseline;text-anchor:start;white-space:normal;shape-padding:0;shape-margin:0;inline-size:0;clip-rule:nonzero;display:inline;overflow:visible;visibility:visible;isolation:auto;mix-blend-mode:normal;color-interpolation:sRGB;color-interpolation-filters:linearRGB;solid-color:#000000;solid-opacity:1;vector-effect:none;fill:#ffffff;fill-opacity:1;fill-rule:nonzero;stroke:none;stroke-width:0.83008;stroke-linecap:butt;stroke-linejoin:miter;stroke-miterlimit:4;stroke-dasharray:none;stroke-dashoffset:0;stroke-opacity:1;color-rendering:auto;image-rendering:auto;shape-rendering:auto;text-rendering:auto;enable-background:accumulate;stop-color:#000000"
         d="m 191.32918,-64.616478 c -3.72182,0 -6.73868,3.016834 -6.73868,6.738713 0,2.677022 1.5646,4.982713 3.82593,6.070096 l -2.3536,12.429126 h 10.5362 l -2.35431,-12.430502 c 2.25984,-1.087944 3.82322,-3.39281 3.82322,-6.06872 0,-3.721879 -3.01686,-6.738713 -6.73876,-6.738713 z" />
      <path
         style="fill:#ffffff;fill-opacity:1;stroke:none;stroke-width:0.848292;stroke-linecap:round;stroke-linejoin:round;paint-order:stroke fill markers;stop-color:#000000"
         d="m 196.62225,-82.143159 15.33126,14.486057 -15.33126,-0.02817 z"
         id="path3094"
         sodipodi:nodetypes="cccc" />
    </g>
  </g>
</svg>
